<?xml version="1.0" encoding="utf-8"?>
<!-- Generator: Adobe Illustrator 22.1.0, SVG Export Plug-In . SVG Version: 6.00 Build 0)  -->
<svg version="1.1" id="Calque_1" xmlns="http://www.w3.org/2000/svg" xmlns:xlink="http://www.w3.org/1999/xlink" x="0px" y="0px"
	 viewBox="0 0 150 92" style="enable-background:new 0 0 150 92;" xml:space="preserve">
<style type="text/css">
	.st0{clip-path:url(#SVGID_2_);fill:#FFFFFF;}
	.st1{clip-path:url(#SVGID_2_);fill:#E84E0F;}
</style>
<g>
	<defs>
		<rect id="SVGID_1_" x="-15" y="-14" width="177.8" height="119"/>
	</defs>
	<clipPath id="SVGID_2_">
		<use xlink:href="#SVGID_1_"  style="overflow:visible;"/>
	</clipPath>
	<path class="st0" d="M22.9,47.3C12,47.3,3.1,38.4,3.1,27.5V4.1h8.8v23.4c0,6.1,4.9,11,11,11s11-4.9,11-11V4.1h8.8v23.4
		C42.7,38.4,33.8,47.3,22.9,47.3"/>
	<polygon class="st0" points="120.1,21.7 134.5,46.7 144.7,46.7 120.1,4.1 95.5,46.7 105.7,46.7 	"/>
	<path class="st0" d="M72.2,47.3c-4.1,0-8.3-1.2-12-3.6c-10.1-6.6-13-20.3-6.4-30.4c6.6-10.1,20.3-13,30.4-6.4l-4.8,7.4
		c-6.1-4-14.3-2.3-18.2,3.8c-4,6.1-2.3,14.3,3.8,18.2c6.1,4,14.3,2.3,18.2-3.8l7.4,4.8C86.4,43.8,79.4,47.3,72.2,47.3"/>
	<rect x="72" y="20.9" class="st0" width="19.6" height="8.8"/>
	<polygon class="st1" points="120.1,40.6 109.7,58.8 130.6,58.8 	"/>
	<path class="st0" d="M4.6,67.4c-1-0.9-1.5-2.1-1.5-3.6v-7.8h2.7v7.7c0,0.8,0.2,1.4,0.7,1.8c0.5,0.5,1,0.7,1.8,0.7s1.3-0.2,1.8-0.7
		c0.5-0.5,0.7-1.1,0.7-1.8v-7.7h2.7v7.8c0,1.5-0.5,2.7-1.5,3.6c-1,0.9-2.2,1.4-3.7,1.4C6.8,68.8,5.6,68.3,4.6,67.4"/>
	<path class="st0" d="M24.3,59.7c0.6,0.7,1,1.7,1,2.9v5.9h-2.6V63c0-1.4-0.6-2.2-1.7-2.2c-0.4,0-0.8,0.1-1.2,0.3
		c-0.3,0.2-0.6,0.5-0.8,0.9c-0.2,0.4-0.3,0.8-0.3,1.3v5.1h-2.6v-9.7H18l0.5,1.2c0.2-0.2,0.4-0.4,0.6-0.6c0.2-0.2,0.5-0.3,0.8-0.4
		c0.3-0.1,0.6-0.2,0.9-0.3c0.3-0.1,0.6-0.1,1-0.1C22.8,58.6,23.7,58.9,24.3,59.7"/>
	<path class="st0" d="M28.1,55.1h2.6v2.4h-2.6V55.1z M28.1,58.8h2.6v9.7h-2.6V58.8z"/>
	<polygon class="st0" points="42.6,58.8 38.8,68.5 36.3,68.5 32.4,58.8 35.2,58.8 37.6,65.3 39.9,58.8 	"/>
	<path class="st0" d="M53.3,64.4H46c0.1,0.7,0.4,1.2,0.8,1.5c0.4,0.4,0.9,0.5,1.6,0.5c0.4,0,0.8-0.1,1.2-0.3
		c0.4-0.2,0.6-0.5,0.8-0.8h2.8c-0.4,1.1-1,1.9-1.8,2.5c-0.9,0.6-1.9,0.9-3,0.9c-1.4,0-2.6-0.5-3.6-1.5c-1-1-1.4-2.2-1.4-3.6
		c0-0.6,0.1-1.1,0.2-1.6c0.2-0.5,0.4-1,0.7-1.4c0.3-0.4,0.7-0.8,1.1-1.1c0.4-0.3,0.9-0.5,1.4-0.7c0.5-0.2,1.1-0.3,1.6-0.3
		c1,0,1.8,0.2,2.6,0.7c0.8,0.5,1.4,1.1,1.8,1.8c0.4,0.8,0.6,1.6,0.6,2.5C53.4,63.9,53.4,64.1,53.3,64.4 M46.9,61.2
		c-0.4,0.3-0.7,0.8-0.8,1.3h4.7c-0.1-0.4-0.3-0.7-0.5-1c-0.2-0.3-0.5-0.5-0.8-0.6c-0.3-0.1-0.7-0.2-1-0.2
		C47.8,60.8,47.3,60.9,46.9,61.2"/>
	<path class="st0" d="M61.4,58.8v2.5h-1.1c-0.7,0-1.3,0.2-1.6,0.5c-0.3,0.3-0.5,0.9-0.5,1.7v5h-2.6v-9.7h1.7l0.5,1.2
		c0.7-0.8,1.6-1.2,2.8-1.2H61.4z"/>
	<path class="st0" d="M64.5,68.3c-0.6-0.3-1.1-0.7-1.4-1.2c-0.3-0.5-0.5-1.1-0.5-1.8h2.5c0,0.3,0.1,0.5,0.2,0.7
		c0.1,0.2,0.3,0.3,0.6,0.4c0.2,0.1,0.5,0.1,0.8,0.1c0.3,0,0.5,0,0.7-0.1c0.2-0.1,0.4-0.2,0.5-0.3c0.1-0.1,0.2-0.3,0.2-0.5
		c0-0.3-0.2-0.5-0.5-0.7c-0.3-0.1-0.8-0.3-1.4-0.4c-0.4-0.1-0.7-0.1-1-0.2c-0.3-0.1-0.6-0.2-0.9-0.3c-0.4-0.1-0.6-0.3-0.8-0.5
		c-0.2-0.2-0.4-0.5-0.5-0.8c-0.2-0.3-0.2-0.7-0.2-1.2c0-0.9,0.4-1.6,1.1-2.2c0.7-0.6,1.7-0.9,2.8-0.9c1.2,0,2.1,0.3,2.8,0.9
		c0.7,0.6,1.1,1.4,1.1,2.3H68c0-0.8-0.5-1.1-1.5-1.1c-0.4,0-0.7,0.1-0.9,0.3c-0.2,0.2-0.3,0.4-0.3,0.7c0,0.1,0,0.2,0.1,0.3
		c0.1,0.1,0.1,0.2,0.2,0.2c0.1,0.1,0.2,0.1,0.4,0.2c0.2,0.1,0.4,0.1,0.5,0.1l0.6,0.1c0.2,0,0.4,0.1,0.5,0.1c0.1,0,0.3,0.1,0.5,0.1
		c0.2,0,0.4,0.1,0.5,0.1c0.1,0,0.3,0.1,0.5,0.2c0.2,0.1,0.3,0.1,0.4,0.2c0.1,0.1,0.2,0.2,0.4,0.3c0.1,0.1,0.3,0.2,0.3,0.4
		c0.1,0.1,0.2,0.3,0.3,0.4c0.1,0.2,0.1,0.3,0.2,0.5c0,0.2,0,0.4,0,0.6c0,1-0.4,1.8-1.1,2.4c-0.7,0.6-1.7,0.9-2.9,0.9
		C65.8,68.8,65.1,68.6,64.5,68.3"/>
	<path class="st0" d="M73,55.1h2.6v2.4H73V55.1z M73,58.8h2.6v9.7H73V58.8z"/>
	<path class="st0" d="M84.3,66.2v2.3h-1.8c-0.7,0-1.3-0.1-1.8-0.4c-0.5-0.3-0.9-0.7-1.2-1.2c-0.3-0.5-0.4-1.1-0.4-1.9v-4.1h-1.8
		v-0.6l3.8-4.1h0.5v2.5h2.7v2.1h-2.6v3.8c0,0.5,0.1,0.8,0.4,1.1c0.3,0.3,0.6,0.4,1.1,0.4H84.3z"/>
	<path class="st0" d="M95.7,64.4h-7.3c0.1,0.7,0.4,1.2,0.8,1.5c0.4,0.4,0.9,0.5,1.6,0.5c0.4,0,0.8-0.1,1.2-0.3s0.6-0.5,0.8-0.8h2.8
		c-0.4,1.1-1,1.9-1.8,2.5c-0.9,0.6-1.9,0.9-3,0.9c-1.4,0-2.6-0.5-3.6-1.5c-1-1-1.4-2.2-1.4-3.6c0-0.6,0.1-1.1,0.2-1.6
		c0.2-0.5,0.4-1,0.7-1.4c0.3-0.4,0.7-0.8,1.1-1.1c0.4-0.3,0.9-0.5,1.4-0.7c0.5-0.2,1.1-0.3,1.6-0.3c1,0,1.8,0.2,2.6,0.7
		c0.8,0.5,1.4,1.1,1.8,1.8c0.4,0.8,0.6,1.6,0.6,2.5C95.8,63.9,95.8,64.1,95.7,64.4 M89.3,61.2c-0.4,0.3-0.7,0.8-0.8,1.3h4.7
		c-0.1-0.4-0.3-0.7-0.5-1c-0.2-0.3-0.5-0.5-0.8-0.6c-0.3-0.1-0.7-0.2-1-0.2C90.2,60.8,89.7,60.9,89.3,61.2 M91.6,57.7h-2l1-2.7h2.8
		L91.6,57.7z"/>
	<path class="st0" d="M15.5,80.1c0,2-0.6,3.6-1.8,4.9c-1.2,1.3-2.7,1.9-4.6,1.9c-1.9,0-3.4-0.6-4.6-1.9c-1.2-1.2-1.9-2.8-1.9-4.7
		c0-1.9,0.6-3.5,1.8-4.7c1.2-1.2,2.8-1.9,4.6-1.9c1.6,0,2.9,0.4,4.1,1.3c1.2,0.9,1.9,2,2.2,3.4h-2.8c-0.2-0.5-0.4-0.8-0.8-1.2
		c-0.3-0.3-0.7-0.6-1.2-0.8c-0.5-0.2-1-0.3-1.5-0.3c-1.1,0-2,0.4-2.7,1.1c-0.7,0.7-1,1.7-1,2.9c0,0.8,0.2,1.4,0.5,2
		c0.3,0.6,0.7,1.1,1.3,1.4s1.2,0.5,2,0.5c0.5,0,1-0.1,1.5-0.3c0.5-0.2,0.9-0.4,1.2-0.8c0.3-0.3,0.6-0.7,0.7-1.1H8.8v-2.1H15.5z"/>
	<path class="st0" d="M23.5,76.9v2.5h-1.1c-0.7,0-1.3,0.2-1.6,0.5c-0.3,0.3-0.5,0.9-0.5,1.7v5h-2.6v-9.7h1.7l0.5,1.2
		c0.7-0.8,1.6-1.2,2.8-1.2H23.5z"/>
	<path class="st0" d="M34.4,82.5h-7.3c0.1,0.7,0.4,1.2,0.8,1.5c0.4,0.4,0.9,0.5,1.6,0.5c0.4,0,0.8-0.1,1.2-0.3
		c0.4-0.2,0.6-0.5,0.8-0.8h2.8c-0.4,1.1-1,1.9-1.8,2.5c-0.9,0.6-1.9,0.9-3,0.9c-1.4,0-2.6-0.5-3.6-1.5c-1-1-1.4-2.2-1.4-3.6
		c0-0.6,0.1-1.1,0.2-1.6c0.2-0.5,0.4-1,0.7-1.4c0.3-0.4,0.7-0.8,1.1-1.1c0.4-0.3,0.9-0.5,1.4-0.7c0.5-0.2,1.1-0.3,1.6-0.3
		c1,0,1.8,0.2,2.6,0.7c0.8,0.5,1.4,1.1,1.8,1.8c0.4,0.8,0.6,1.6,0.6,2.5C34.5,82,34.5,82.2,34.4,82.5 M28,79.4
		c-0.4,0.3-0.7,0.8-0.8,1.3h4.7c-0.1-0.4-0.3-0.7-0.5-1c-0.2-0.3-0.5-0.5-0.8-0.6c-0.3-0.1-0.7-0.2-1-0.2C28.9,78.9,28.4,79,28,79.4
		"/>
	<path class="st0" d="M44.8,77.8c0.6,0.7,1,1.7,1,2.9v5.9h-2.6v-5.4c0-1.4-0.6-2.2-1.7-2.2c-0.4,0-0.8,0.1-1.2,0.3
		c-0.3,0.2-0.6,0.5-0.8,0.9c-0.2,0.4-0.3,0.8-0.3,1.3v5.1h-2.6v-9.7h1.8l0.5,1.2c0.2-0.2,0.4-0.4,0.6-0.6c0.2-0.2,0.5-0.3,0.8-0.4
		c0.3-0.1,0.6-0.2,0.9-0.3c0.3-0.1,0.6-0.1,1-0.1C43.3,76.7,44.2,77.1,44.8,77.8"/>
	<path class="st0" d="M50.5,86.2c-0.8-0.4-1.4-1.1-1.9-1.8c-0.4-0.8-0.7-1.7-0.7-2.6c0-1.5,0.5-2.7,1.5-3.7c1-1,2.2-1.5,3.7-1.5
		c1.5,0,2.7,0.5,3.7,1.5c1,1,1.5,2.2,1.5,3.7c0,1.5-0.5,2.7-1.5,3.6c-1,1-2.2,1.5-3.7,1.5C52.2,86.9,51.3,86.7,50.5,86.2 M55,83.7
		c0.5-0.5,0.7-1.1,0.7-1.9c0-0.8-0.2-1.4-0.7-1.9c-0.5-0.5-1.1-0.7-1.9-0.7c-0.8,0-1.4,0.2-1.9,0.7c-0.5,0.5-0.7,1.1-0.7,1.9
		c0,0.4,0.1,0.7,0.2,1.1c0.1,0.3,0.3,0.6,0.5,0.8c0.2,0.2,0.5,0.4,0.8,0.5c0.3,0.1,0.7,0.2,1,0.2C53.9,84.4,54.5,84.2,55,83.7"/>
	<path class="st0" d="M69.5,78.1c1,1,1.4,2.2,1.4,3.7c0,1.5-0.5,2.7-1.4,3.7s-2.2,1.5-3.6,1.5c-1.2,0-2.2-0.4-3-1.1l-0.3,0.8h-1.9
		V73.4h2.6v4c0.8-0.5,1.7-0.8,2.7-0.8C67.3,76.7,68.5,77.1,69.5,78.1 M67.5,83.7c0.5-0.5,0.7-1.1,0.7-1.9c0-0.5-0.1-1-0.3-1.4
		c-0.2-0.4-0.5-0.7-0.9-0.9c-0.4-0.2-0.9-0.3-1.4-0.3c-0.5,0-0.9,0.1-1.4,0.3c-0.4,0.2-0.7,0.5-0.9,0.9c-0.2,0.4-0.3,0.9-0.3,1.4
		c0,0.8,0.3,1.4,0.8,1.9c0.5,0.5,1.1,0.8,1.9,0.8C66.4,84.4,67,84.2,67.5,83.7"/>
	<rect x="73.2" y="73.4" class="st0" width="2.6" height="13.2"/>
	<path class="st0" d="M88,82.5h-7.3c0.1,0.7,0.4,1.2,0.8,1.5c0.4,0.4,0.9,0.5,1.6,0.5c0.4,0,0.8-0.1,1.2-0.3
		c0.4-0.2,0.6-0.5,0.8-0.8h2.8c-0.4,1.1-1,1.9-1.8,2.5c-0.9,0.6-1.9,0.9-3,0.9c-1.4,0-2.6-0.5-3.6-1.5c-1-1-1.4-2.2-1.4-3.6
		c0-0.6,0.1-1.1,0.2-1.6c0.2-0.5,0.4-1,0.7-1.4c0.3-0.4,0.7-0.8,1.1-1.1c0.4-0.3,0.9-0.5,1.4-0.7c0.5-0.2,1.1-0.3,1.6-0.3
		c1,0,1.8,0.2,2.6,0.7c0.8,0.5,1.4,1.1,1.8,1.8c0.4,0.8,0.6,1.6,0.6,2.5C88.1,82,88,82.2,88,82.5 M81.6,79.4
		c-0.4,0.3-0.7,0.8-0.8,1.3h4.7c-0.1-0.4-0.3-0.7-0.5-1c-0.2-0.3-0.5-0.5-0.8-0.6c-0.3-0.1-0.7-0.2-1-0.2C82.5,78.9,82,79,81.6,79.4
		"/>
	<path class="st0" d="M102.1,84.2h-5l-0.9,2.4h-2.9l4.9-12.5h2.6l5.1,12.5H103L102.1,84.2z M97.9,81.9h3.3l-1.6-4.5L97.9,81.9z"/>
	<rect x="107.7" y="73.4" class="st0" width="2.6" height="13.2"/>
	<path class="st0" d="M122.1,78.1c1,1,1.4,2.2,1.4,3.7c0,1.5-0.5,2.7-1.5,3.7c-1,1-2.2,1.5-3.6,1.5c-1,0-1.9-0.3-2.7-0.8v4h-2.6
		V76.9h1.7l0.4,0.9c0.9-0.8,1.9-1.1,3.1-1.1C119.9,76.7,121.1,77.1,122.1,78.1 M120.1,83.7c0.5-0.5,0.8-1.1,0.8-1.9
		c0-0.5-0.1-1-0.3-1.4c-0.2-0.4-0.5-0.7-0.9-0.9c-0.4-0.2-0.9-0.3-1.4-0.3c-0.5,0-1,0.1-1.4,0.3c-0.4,0.2-0.7,0.5-0.9,0.9
		c-0.2,0.4-0.3,0.9-0.3,1.4c0,0.8,0.2,1.4,0.7,1.9c0.5,0.5,1.1,0.8,1.9,0.8C119,84.4,119.6,84.2,120.1,83.7"/>
	<path class="st0" d="M135.1,82.5h-7.3c0.1,0.7,0.4,1.2,0.8,1.5c0.4,0.4,0.9,0.5,1.6,0.5c0.4,0,0.8-0.1,1.2-0.3
		c0.4-0.2,0.6-0.5,0.8-0.8h2.8c-0.4,1.1-1,1.9-1.8,2.5c-0.9,0.6-1.9,0.9-3,0.9c-1.4,0-2.6-0.5-3.6-1.5c-1-1-1.4-2.2-1.4-3.6
		c0-0.6,0.1-1.1,0.2-1.6c0.2-0.5,0.4-1,0.7-1.4c0.3-0.4,0.7-0.8,1.1-1.1c0.4-0.3,0.9-0.5,1.4-0.7c0.5-0.2,1.1-0.3,1.6-0.3
		c1,0,1.8,0.2,2.6,0.7c0.8,0.5,1.4,1.1,1.8,1.8c0.4,0.8,0.6,1.6,0.6,2.5C135.1,82,135.1,82.2,135.1,82.5 M128.6,79.4
		c-0.4,0.3-0.7,0.8-0.8,1.3h4.7c-0.1-0.4-0.3-0.7-0.5-1c-0.2-0.3-0.5-0.5-0.8-0.6c-0.3-0.1-0.7-0.2-1-0.2
		C129.5,78.9,129,79,128.6,79.4"/>
	<path class="st0" d="M138.7,86.4c-0.6-0.3-1.1-0.7-1.4-1.2c-0.3-0.5-0.5-1.1-0.5-1.8h2.5c0,0.3,0.1,0.5,0.2,0.7
		c0.1,0.2,0.3,0.3,0.6,0.4c0.2,0.1,0.5,0.1,0.8,0.1c0.3,0,0.5,0,0.7-0.1c0.2-0.1,0.4-0.2,0.5-0.3c0.1-0.1,0.2-0.3,0.2-0.5
		c0-0.3-0.2-0.5-0.5-0.7c-0.3-0.1-0.8-0.3-1.4-0.4c-0.4-0.1-0.7-0.1-1-0.2c-0.3-0.1-0.6-0.2-0.9-0.3c-0.4-0.1-0.6-0.3-0.8-0.5
		c-0.2-0.2-0.4-0.5-0.5-0.8c-0.2-0.3-0.2-0.7-0.2-1.2c0-0.9,0.4-1.6,1.1-2.2c0.7-0.6,1.7-0.9,2.8-0.9c1.2,0,2.1,0.3,2.8,0.9
		c0.7,0.6,1.1,1.4,1.1,2.3h-2.5c0-0.8-0.5-1.1-1.5-1.1c-0.4,0-0.7,0.1-0.9,0.3c-0.2,0.2-0.3,0.4-0.3,0.7c0,0.1,0,0.2,0.1,0.3
		c0.1,0.1,0.1,0.2,0.2,0.2c0.1,0.1,0.2,0.1,0.4,0.2c0.2,0.1,0.4,0.1,0.5,0.1l0.6,0.1c0.2,0,0.4,0.1,0.5,0.1c0.1,0,0.3,0.1,0.5,0.1
		c0.2,0,0.4,0.1,0.5,0.1c0.1,0,0.3,0.1,0.5,0.2c0.2,0.1,0.3,0.1,0.4,0.2c0.1,0.1,0.2,0.2,0.4,0.3c0.1,0.1,0.3,0.2,0.3,0.4
		c0.1,0.1,0.2,0.3,0.3,0.4c0.1,0.2,0.1,0.3,0.2,0.5c0,0.2,0,0.4,0,0.6c0,1-0.4,1.8-1.1,2.4c-0.7,0.6-1.7,0.9-2.9,0.9
		C140,86.9,139.3,86.7,138.7,86.4"/>
</g>
</svg>
